Factories:
0: FUBUB
1: RYBL
2: 
3: 
4: LURR
5: LRLL

Score for Player jack is 0
Mosaic for Player jack
1:     .||.....
2:    YY||.....
3:   ...||.....
4:  ....||.....
5: .....||.....
broken: .......

Score for Player wang is 0
Mosaic for Player wang
1:     L||.....
2:    ..||.....
3:   ...||.....
4:  ....||.....
5: .....||.....
broken: L......

